1;39;;;Function "reverse_bid" is not referenced and will be removed from exp-file
1;39;;;Function "reverse_bid_force" is not referenced and will be removed from exp-file
1;39;;;Function "order_send" is not referenced and will be removed from exp-file
1;39;;;Function "CalculateCurrentMaxOrders" is not referenced and will be removed from exp-file
1;39;;;Function "CalculateCurrentOrders" is not referenced and will be removed from exp-file
1;39;;;Function "CalculateCurrentOrdersLots" is not referenced and will be removed from exp-file
1;39;;;Function "SendAlert" is not referenced and will be removed from exp-file
1;39;;;Function "createorder" is not referenced and will be removed from exp-file
1;39;;;Function "createorder_lots" is not referenced and will be removed from exp-file
1;39;;;Function "TrendTostring" is not referenced and will be removed from exp-file
1;39;;;Function "LotsOptimized" is not referenced and will be removed from exp-file
1;39;;;Function "create_multi_order" is not referenced and will be removed from exp-file
1;39;;;Function "FileAppend" is not referenced and will be removed from exp-file
1;39;;;Function "call_order_creation" is not referenced and will be removed from exp-file
